<svg
    {{ with .class }}class="{{ . }}" {{ end }}
    {{ with .style }}style="{{ . | safeCSS }}" {{ end }}
    version="1.1" viewBox="0 0 74.714 32" xmlns="http://www.w3.org/2000/svg">
    <path d="m0.84008 0.73262v30.535h2.1894v0.73262h-3.0295v-32h3.029v0.73252z"/>
    <path d="m9.2764 10.413v1.5452h0.043827c0.41062-0.5882 0.90521-1.0451 1.4846-1.3687 0.57902-0.32322 1.2428-0.4855 1.9904-0.4855 0.71826 0 1.3745 0.14014 1.9682 0.41947 0.59388 0.2798 1.0448 0.77252 1.3527 1.479 0.33698-0.50023 0.79512-0.94183 1.3745-1.3244 0.57902-0.38241 1.2644-0.57405 2.0563-0.57405 0.60117 0 1.158 0.07372 1.6716 0.2209 0.51285 0.14717 0.95272 0.3826 1.3193 0.7063 0.36623 0.32398 0.65209 0.74706 0.85778 1.269 0.20512 0.52293 0.30792 1.1517 0.30792 1.8877v7.6373h-3.1242v-6.4677c0-0.38241-0.01458-0.74298-0.04401-1.0817-0.02962-0.33824-0.1099-0.63238-0.24185-0.88292-0.13205-0.24997-0.32657-0.44882-0.5828-0.59609-0.25662-0.1466-0.60495-0.22061-1.0447-0.22061s-0.7954 0.08513-1.0667 0.25377c-0.27148 0.1695-0.48389 0.3904-0.6377 0.66231-0.15391 0.27258-0.25662 0.58146-0.30782 0.92748-0.05159 0.34565-0.07705 0.69528-0.07705 1.0484v6.3571h-3.1237v-6.4013c0-0.33842-0.0076-0.67333-0.02178-1.0043-0.01495-0.3313-0.07705-0.63656-0.18723-0.91637-0.10999-0.27933-0.29344-0.50393-0.54986-0.67343-0.25661-0.16864-0.6342-0.25377-1.1326-0.25377-0.14681 0-0.34105 0.03315-0.58271 0.09957-0.24194 0.06623-0.47669 0.19154-0.70378 0.37519-0.22756 0.18413-0.4216 0.44902-0.5829 0.79457-0.16139 0.34602-0.24194 0.79827-0.24194 1.3574v6.6223h-3.1219v-11.412z"/>
    <path d="m25.704 12.09c0.32231-0.48578 0.73302-0.87551 1.2317-1.1701 0.49827-0.29424 1.0588-0.50383 1.6821-0.62906 0.62303-0.12494 1.2499-0.18774 1.8804-0.18774 0.57192 0 1.1508 0.04067 1.7373 0.12133 0.5864 0.08124 1.1217 0.23961 1.6056 0.47505 0.48379 0.23534 0.87955 0.56303 1.1876 0.98221 0.30792 0.41937 0.46183 0.97499 0.46183 1.6668v5.9375c0 0.51571 0.02933 1.0081 0.08813 1.479 0.05821 0.47115 0.16101 0.8243 0.30773 1.0596h-3.1667c-0.05879-0.17672-0.10658-0.35676-0.14303-0.54089-0.03692-0.18365-0.06257-0.3713-0.07695-0.56274-0.49856 0.51514-1.0852 0.8757-1.7592 1.0818-0.67462 0.20551-1.3637 0.30888-2.0675 0.30888-0.54267 0-1.0485-0.06631-1.5176-0.19857-0.46931-0.13254-0.87965-0.33842-1.2315-0.61851-0.35193-0.27914-0.62682-0.63238-0.82475-1.0591-0.19793-0.42669-0.29703-0.93489-0.29703-1.5233 0-0.6473 0.11359-1.181 0.34114-1.6 0.22718-0.41966 0.52014-0.75428 0.87984-1.0047 0.35903-0.25007 0.76947-0.43771 1.2315-0.56274 0.46174-0.12494 0.92716-0.22403 1.3964-0.29804 0.46921-0.07335 0.93095-0.13235 1.3856-0.17643 0.45445-0.04428 0.85778-0.11059 1.2096-0.19886 0.35194-0.08827 0.63023-0.21681 0.83573-0.38621 0.20493-0.16921 0.30025-0.41567 0.28586-0.73965 0-0.33823-0.0549-0.60702-0.16489-0.80559-0.1099-0.19857-0.25662-0.35334-0.43978-0.46365-0.18335-0.11031-0.39595-0.18394-0.6377-0.2209-0.24204-0.03629-0.50253-0.0551-0.78073-0.0551-0.61584 0-1.0996 0.13254-1.4516 0.39742-0.35174 0.26489-0.55743 0.70659-0.61584 1.3244h-3.1237c0.04373-0.73556 0.2267-1.3466 0.54967-1.8319zm6.1687 4.4258c-0.19783 0.06613-0.41053 0.12114-0.63761 0.16541-0.22737 0.04418-0.46552 0.08105-0.71475 0.11031-0.24942 0.02973-0.49865 0.06632-0.72886 0.1105-0.23475 0.04381-0.46562 0.10318-0.69261 0.17643-0.22756 0.074-0.42548 0.17311-0.59388 0.29814-0.16887 0.12513-0.30442 0.2836-0.40703 0.47505-0.1027 0.19135-0.15391 0.43429-0.15391 0.72853 0 0.27933 0.05121 0.51514 0.15391 0.70602 0.10261 0.19164 0.24213 0.34242 0.41801 0.45272 0.17587 0.11031 0.38099 0.18774 0.61593 0.23163 0.23428 0.04428 0.47622 0.06632 0.72555 0.06632 0.61574 0 1.0921-0.1028 1.4296-0.30907 0.33707-0.20579 0.58611-0.45244 0.74779-0.73965 0.16111-0.28683 0.26021-0.5769 0.29694-0.87162 0.03635-0.29424 0.0549-0.52977 0.0549-0.7063v-1.1707c-0.13214 0.1181-0.29703 0.20997-0.49506 0.27629z"/>
    <path d="m43.715 10.413v2.0971h-2.287v5.6511c0 0.52949 0.08784 0.88283 0.2639 1.0593 0.17568 0.17662 0.52781 0.26489 1.0556 0.26489 0.17597 0 0.34436-0.0071 0.50575-0.02205 0.1612-0.01444 0.31521-0.03687 0.46174-0.06613v2.4282c-0.2639 0.04418-0.55725 0.07344-0.87965 0.08846-0.3225 0.01415-0.6377 0.02186-0.94657 0.02186-0.48379 0-0.94212-0.03326-1.3745-0.09958-0.43268-0.06604-0.81377-0.19448-1.1436-0.38602-0.32997-0.19106-0.59028-0.46365-0.78073-0.8168-0.19083-0.35287-0.28596-0.81661-0.28596-1.3908v-6.7323h-1.8912v-2.0971h1.8912v-3.4215h3.1237v3.4215z"/>
    <path d="m48.179 10.413v2.1192h0.04402c0.14634-0.35344 0.34417-0.68055 0.59369-0.98249 0.24933-0.30137 0.535-0.55913 0.85759-0.77252 0.32231-0.21301 0.66705-0.37861 1.0339-0.49671 0.36613-0.11753 0.7476-0.17662 1.1436-0.17662 0.20522 0 0.4322 0.03706 0.68172 0.1105v2.9139c-0.14681-0.02963-0.32278-0.05548-0.52781-0.07733-0.20541-0.02213-0.40324-0.03326-0.59388-0.03326-0.57182 0-1.0556 0.09596-1.4513 0.28702-0.39586 0.19135-0.71466 0.45234-0.9567 0.78354-0.24185 0.3313-0.4145 0.71732-0.51702 1.1589-0.10251 0.44132-0.15382 0.91988-0.15382 1.4348v5.1432h-3.1228v-11.412z"/>
    <path d="m53.853 8.6459v-2.582h3.1237v2.5826zm3.1237 1.766v11.413h-3.1237v-11.412z"/>
    <path d="m58.604 10.413h3.5626l2.0014 2.98 1.9794-2.98h3.4527l-3.7386 5.342 4.2006 6.0704h-3.5629l-2.3752-3.598-2.3753 3.598h-3.4964l4.0904-6.0039z"/>
    <path d="m73.874 31.267v-30.535h-2.1894v-0.73252h3.029v32h-3.029v-0.73262z"/>
</svg>
